0202,90950.018767,86242.903181,145539.115981,434.891499,186242.575377,1212.139954,1179384.147473,655989.389489,246402.924512,379.402197,231362.023969,1008.561761
0203,126743.647242,8407.144396,144516.890833,327.269585,183630.785985,720.527853,3496083.522217,1.414214,248187.049568,297.366295,235645.265013,704.869666
0204,-207756.252798,111250.344112,149380.932724,321.022964,186229.108838,477.071179,744798.666839,298579.099860,244253.715994,294.673190,230533.079816,701.821866
0205,126561.161953,1999.251563,155234.725597,352.189543,192865.844392,494.046820,257579.787213,19008.052546,238488.548515,346.106174,225351.218533,630.889975
0206,126850.387994,590.198034,163390.320453,397.548717,196982.026219,2201.546172,239655.174658,481.357515,229525.465757,381.356266,215652.619069,1655.840536
0207,137162.138858,376.510732,176808.649576,416.306134,212887.940480,841.068141,229174.449953,383.902339,216062.227150,450.811324,204639.358205,955.030072
0208,152805.970310,329.269063,191814.894992,391.942355,228699.007367,848.983959,212614.027819,319.115812,200044.602984,389.239291,187955.465615,933.408281
0209,165870.773901,352.792643,203653.729882,411.164114,237518.399936,663.929314,199352.259421,376.352584,187390.928190,457.332334,179499.722860,822.331720
0210,172393.242245,296.035560,210358.404841,341.740856,243402.517653,592.027847,192209.246277,312.719411,180930.133221,335.076501,171574.168091,774.198906
0211,180798.400803,285.738048,216892.456822,308.145166,250197.675964,752.628730,183880.770619,281.103000,174145.557615,317.165272,165240.786551,852.246695
0212,188676.449239,264.043602,223721.882628,351.910732,258281.573211,783.941418,175879.258905,301.789757,167188.204149,356.715135,157862.611896,611.189072
0213,197435.692763,321.774615,232228.138870,362.461608,264258.924762,927.444254,167280.386569,318.446598,158037.476229,358.350443,150493.665741,796.510144
0214,207061.208676,311.783024,241297.152066,318.437914,272804.387079,727.696075,157437.143236,298.430995,148980.150954,334.917954,143613.907228,941.055806
0215,218840.786575,307.514593,251778.711941,360.086402,282881.842341,691.800812,145154.549527,285.694447,138286.198991,364.712973,130772.126955,834.276834
0302,145552.929751,346.382775,179519.019119,814.244653,244487.907443,306849.833686,256717.743708,388.750469,242768.977734,897.431078,966334.126030,658978.621232
0303,129656.443309,1.405977,141307.817906,260.176372,179993.734785,571.193397,199034.930675,12344.406163,260797.706002,274.206141,245644.624879,427.122899
0304,133309.265094,8813.225786,140055.213965,272.044590,181422.941979,516.074145,239459.039077,5529.696451,262607.709042,282.412317,245522.714891,704.686922
0305,131725.120114,307291.545414,141935.200672,284.763678,182339.581389,649.723583,240755.836452,16624.981344,260437.075233,309.842186,243998.443307,638.263380
0306,139209.765146,10745.660254,147455.886482,325.911954,186506.813271,843.265241,345315.525398,432060.636777,254817.489159,369.462630,241385.532226,935.335621
0307,122050.511366,445.747684,157661.209531,394.298077,195964.795221,1009.063724,253807.570511,479.686990,243127.025679,380.579779,227605.973562,1144.366884
0308,135806.851185,262.104755,174305.632912,356.135887,210125.272037,1345.411606,240307.811234,298.623938,227348.714646,350.505251,214820.606145,931.854768
0309,149171.687944,376.765238,188059.765763,423.990570,224161.158059,910.259270,224594.699595,368.643074,212296.020720,489.965762,199218.366345,1176.802979
0310,161933.321057,334.227998,200600.273044,356.991785,234848.259832,540.578143,210726.651701,344.023785,198452.536348,391.539744,186892.921100,912.716080
0311,172254.497633,291.760510,209913.401862,348.080537,243940.542150,565.513814,199350.601118,320.854981,187978.038236,324.764015,177981.123965,544.385329
0312,181812.181986,278.243075,217927.711760,318.220161,250525.230186,537.012219,190195.991068,256.959950,179850.271948,313.715637,171360.619551,614.858085
0313,190655.835074,304.424348,226477.927340,357.000169,260142.431497,618.399365,180361.168217,320.313999,170527.814838,384.676455,160506.743867,768.738602
0314,203329.680227,346.349516,237042.419699,340.702697,269224.006457,936.813626,166440.038746,345.819828,158145.535358,343.433050,151597.816524,737.921911
0315,213910.855470,267.654950,247846.169406,282.059449,278867.697421,658.666289,154768.340821,278.090810,146941.290827,297.165354,140050.050616,671.362656
0402,123276.907660,35466.686005,146872.129846,351.712123,187928.723877,850.451961,1414451.987877,120856.442215,255367.492204,352.658411,240293.437952,559.816637
0403,140184.360528,271.257182,176056.259136,1845.244492,179902.295689,527.770363,263476.482854,290.657461,249925.347488,876.856497,250812.193302,405.917460
0404,135095.635917,282.880056,170427.718510,842.684330,178481.582831,338.875744,268054.050230,254.848733,249661.236394,2077.897066,251913.668814,607.665953
0405,-190877.269685,488443.411270,135220.190843,219.867994,173952.781964,364.087830,222241.084870,103832.071538,268719.556641,228.994944,253877.352328,303.872911
0406,139433.282171,266.387768,153646.188383,15020.480864,177698.897499,538.686490,264355.719821,260.572601,-290758.052209,788571.922776,251245.008123,477.568179
0407,-179916.831455,222933.456096,149207.753475,321.138023,190051.073489,1028.230303,623759.841600,291788.332484,254751.883998,316.736289,238945.451808,1014.765856
0408,124171.458118,382.766228,162062.662015,305.637674,200268.572041,552.662396,253539.937666,423.352694,241264.828192,310.108717,227910.049112,464.825338
0409,135886.403472,411.803870,175891.925993,427.919785,212652.492696,1084.447561,239756.254196,458.523722,226331.041350,435.369382,214279.052564,993.369962
0410,151542.776727,375.095780,190852.692852,470.546830,224612.698544,806.251659,223258.726990,406.049040,210505.633938,425.750965,200507.605468,842.149397
0411,164656.086884,346.094456,202979.030725,323.978291,237247.255554,462.328714,209238.500149,311.450938,196358.445369,332.721172,186836.568539,701.921053
0412,174937.857228,305.907029,212297.514807,326.505412,245167.935020,551.912704,197459.707667,328.904323,186467.454135,332.468543,176986.336048,756.448143
0413,185204.760522,312.862776,220768.839920,365.282371,254506.517437,1032.323685,186556.242573,305.150496,177451.626250,367.594471,168058.772365,764.060463
0414,197462.022650,319.209926,231413.736797,367.677509,262393.638562,610.590005,173923.653904,332.895413,165268.809272,402.059627,156982.311481,567.028865
0415,205866.780915,294.582270,240144.604210,331.731371,271322.116568,517.497949,164651.372183,277.799722,155617.262091,304.810323,148627.081847,671.086168
0502,123946.885831,4513.776714,149865.848955,402.103508,187803.831846,945.713302,924654.282151,307236.214487,246929.685646,335.781936,235368.976536,567.576745
0503,131052.233345,707.831417,141355.844049,294.265031,180342.280024,426.350152,-186845.447134,727695.783898,255254.802773,248.298345,240845.149660,415.602699
0504,135684.513863,246.616558,159264.225351,123541.353025,175615.919059,464.858779,261692.460417,237.679603,148365.764504,640762.388972,246831.360542,461.457896
0505,108171.417860,96841.954076,136050.729769,256.322922,174665.943041,380.965485,200585.563233,2678.931239,261678.028085,224.980512,247103.962090,334.348200
0506,139862.053089,241.818400,144753.989285,19091.439274,179039.132766,524.016139,257526.866948,244.546003,215549.707675,13418.503699,242144.576397,573.374558
0507,-720747.030943,98828.209883,147424.634306,252.225636,185840.779389,366.348744,1462312.998705,287867.890742,250149.524582,234.842767,236641.830031,333.027019
0508,119742.663076,398.743177,157336.217831,230.744295,195507.511846,518.513947,434851.130891,327009.409405,240506.302377,233.706261,227673.207235,512.371549
0509,129324.868071,429.813657,168266.911007,451.379674,206515.685177,960.054556,241763.226319,442.278519,229300.337494,417.814066,216142.633239,678.160437
0510,143241.636714,350.927689,183031.302326,458.028101,219038.143965,601.019471,227525.082292,354.848936,213094.380871,441.786000,201214.535900,750.906929
0511,157706.432977,309.844709,197369.920659,331.142183,230554.461521,896.453857,211439.748410,309.200852,198653.461462,329.898349,188788.325417,882.750838
0512,166572.048017,263.687560,205008.086083,381.294467,237812.372507,618.401654,201675.348856,260.425580,189990.632936,332.001721,179838.121025,450.274875
0513,176811.742883,339.088671,213480.233254,384.078901,247052.131366,863.128749,190672.933818,356.453576,180603.871463,368.470287,172360.635517,716.792858
0514,186957.021618,306.147975,222997.438368,342.802872,254751.693437,932.201104,179557.210888,330.018464,170777.370709,332.755532,162237.416925,718.981699
0515,197308.959617,277.668822,231480.344233,308.948209,263111.400947,537.569645,169919.976309,279.226263,161549.466936,292.461970,153430.779803,721.355634
0602,113802.707067,1231.266020,151763.214003,356.730213,191159.869759,696.790721,243615.552721,2651.157653,245661.030800,364.472612,232936.869585,825.475834
0603,130000.846436,8280.649390,144232.680870,225.548430,182008.304486,458.447416,229628.439903,20174.467297,253556.400017,205.207724,240093.023861,428.262958
0604,138121.641148,272.386495,178007.657047,441.698519,649133.880883,719807.171161,259736.690113,225.071509,244473.411009,453.928068,23237.308210,307170.231715
0605,137901.201745,253.209759,177398.301608,378.057251,638913.323273,272675.535668,261498.474081,212.718974,246037.684307,377.695679,-107879.661517,486049.025890
0606,142226.946131,259.009082,144779.537596,5882.100246,179891.105712,532.321016,256879.489377,228.143187,209254.151762,3033.497132,243879.305679,558.853028
0607,-761531.593313,269014.781559,149213.860603,206.962086,187531.519169,532.618826,1393798.084099,666454.604616,249512.187374,213.589690,234547.162415,501.057811
0608,120300.780715,479.218798,157961.363619,229.644112,195286.227914,397.031357,255080.993728,381.957944,240697.347853,215.843547,227218.938679,364.279596
0609,126021.879360,391.358129,165370.931284,364.682262,201680.836533,689.082127,246681.021820,405.903895,232467.204760,332.645000,219044.723701,580.913025
0610,135260.053399,343.180449,175138.302118,373.765551,211527.971536,874.036055,237129.026565,347.647145,221860.236759,365.320938,210144.701317,868.855353
0611,148319.634022,316.992806,187611.739222,394.354287,222915.667451,797.525854,222727.238102,321.593825,208387.623125,375.946127,198324.847051,817.166832
0612,157241.387741,294.364448,196628.550973,322.676983,230617.158990,874.210546,212355.098167,303.492033,199575.524176,343.246750,188070.456014,625.698734
0613,164663.464600,350.267033,203299.545876,464.225131,235367.356169,879.832919,203768.653111,367.006482,191290.411562,505.368378,183217.824499,710.176186
0614,176512.109909,367.057808,213504.427020,422.416669,246037.294794,801.341054,192283.868936,354.641880,180747.039664,421.470371,172349.871017,722.710985
0615,186670.458340,307.763550,222880.359617,358.894192,254513.386163,795.590550,181356.367780,289.614629,171440.075862,351.694511,163403.145253,614.128844
0702,-276131.872666,177856.784368,152943.707878,339.617238,191914.947174,451.176721,882792.849167,427538.113039,266836.337215,320.463950,251376.838068,540.880978
0703,142904.074304,263.258467,180613.985619,441.251589,368069.410256,412293.153274,276884.223573,292.552327,263279.278803,384.767024,108963.197963,534871.843293
0704,134302.916312,1116.146954,136865.702158,315.430828,175653.313145,597.019917,280005.278014,1060.372936,285642.224189,312.238179,269208.922484,477.914108
0705,135300.609218,252.092969,147095.125933,2487.495578,174319.015774,471.399718,286673.411114,294.221236,223957.146020,17646.737779,270448.437596,425.179485
0706,129211.938094,1125.652561,137757.436486,239.743301,177395.299606,468.033090,597138.059357,2083733.058369,283617.305169,234.631217,267014.165148,419.196483
0707,131882.989150,13963.228094,146021.686783,248.623042,186334.422683,447.035044,285139.726786,980.420073,274339.312181,265.589043,257887.141958,456.635878
0708,118582.683903,381.195749,157873.483179,258.902253,194908.835240,605.109072,277148.791407,382.944862,261469.936640,249.929643,246394.467032,552.711688
0709,123836.749815,398.220542,163381.747687,316.895964,201985.516350,444.160015,270116.596794,394.843733,254745.469706,312.326184,240474.172898,507.137733
0710,129513.198543,342.917310,169496.112397,346.897066,206683.456258,605.399306,263724.245822,329.526849,247783.801325,348.161453,235104.207219,720.288980
0711,137461.099395,348.863923,176888.794589,374.148027,213923.703249,685.118025,254587.923251,395.131487,239790.239419,418.619008,226467.777830,751.397217
0712,144914.095204,370.595558,184516.350620,373.903354,219686.161551,744.021461,245916.532083,405.356569,231056.480776,414.331399,218067.212728,1144.969261
0713,150752.775465,359.322314,190154.301233,383.068517,225398.272058,842.626729,238211.783339,360.803398,223959.311290,445.965009,211462.527641,867.942474
0714,163162.434499,393.841915,200208.158794,488.142793,234787.943330,1026.457134,224936.013345,421.503631,212419.470496,500.739673,200130.349871,1037.362912
0715,176267.478296,332.898510,210658.359209,722.034588,214266.826576,540.655516,209472.715292,384.971818,196980.919123,797.255471,199447.391093,504.974925
0802,119084.174729,2224.096480,147585.877286,373.706822,185270.230724,623.646155,258105.113190,38850.810825,256191.641742,438.329710,242144.777808,883.757854
0803,-133794.752546,634142.283605,134230.849724,334.423497,172739.610525,1165.609193,-292084.938839,770874.058101,269152.468520,319.151185,253256.866151,504.452905
0804,130846.286838,275.302233,167502.595280,1465.285404,172624.562446,251.025689,273593.966494,354.220205,258988.985845,858.581286,261850.582166,1422.325117
0805,-90828.851242,313893.779280,129949.696632,311.380458,169241.190978,472.388983,394604.507630,376914.950159,274484.264999,266.433655,257921.033509,408.214027
0806,129476.587652,278.931965,145635.620129,610399.671598,170014.768430,523.507700,274716.408357,273.259091,200938.822828,7788.421928,260110.145187,497.933998
0807,-175556.276340,554345.210017,138479.267053,297.880410,177538.967035,484.448962,213703.036588,29303.121465,265258.763024,300.673961,251196.176464,445.342257
0808,112782.341225,385.867232,152203.709960,229.205594,190581.026021,437.414689,302075.345436,94408.734422,251513.438695,257.160144,237613.686568,562.765773
0809,120404.718671,457.258574,158940.094090,403.817937,196314.727911,816.143928,271676.436587,50855.910946,244222.216051,327.717173,229788.303332,496.396174
0810,125590.753208,346.237234,164879.319684,334.634974,203134.188937,857.468331,252106.735949,329.076723,237815.068183,331.037541,223981.303950,650.238219
0811,129563.094220,369.272221,170287.884698,364.500349,207340.580251,596.110958,247043.957206,312.728668,231471.043155,326.105051,218555.849743,663.260820
0812,133676.767359,339.700033,172707.744773,410.899084,210511.416603,676.585727,242936.373934,317.558716,228923.637466,405.521735,215235.901880,855.673650
0813,138909.230983,418.818548,178466.974022,426.452828,216749.683406,709.677423,237641.629186,381.583421,223030.461259,459.410992,209094.530598,724.535679
0814,149609.375880,462.262695,188863.723207,462.845749,223145.022162,959.167686,224874.498165,439.735085,212068.078748,452.295284,202449.604420,1061.570470
0815,163242.518776,342.771095,201011.940371,408.497143,235179.637568,684.064184,210713.172062,352.639200,198363.278010,397.316687,187756.851966,1142.957402
0902,134928.456189,310147.522060,140412.632693,372.031123,180210.410573,2762.948667,-350362.357488,737595.963059,259214.800022,383.859627,242892.092410,2140.918065
0903,127996.311293,319.911756,165421.910215,739.104416,175584.296250,296626.806104,272474.475372,334.579262,269160.549037,14326.284962,231018.898444,25089.045606
0904,123002.359423,464.510351,140243.934101,6997.734830,164306.863762,377.568253,276849.869321,381.361699,238277.080230,157868.313836,260937.676982,530.397944
0905,1461.341850,234953.018555,123529.768629,450.893907,165320.363228,879.074376,361973.443292,515653.137041,277950.727509,389.122357,264351.037767,850.667758
0906,122232.612716,415.269386,160932.251162,384.257638,170683.172903,38078.705830,277903.434639,343.986218,263061.304854,409.581518,219397.046003,14097.595883
0907,-63652.995409,490102.137857,133269.975944,335.416012,172107.703306,628.801558,727906.408909,558796.162185,265568.112352,351.143031,250653.021646,555.220439
0908,102538.005290,59807.189110,149748.215114,296.666625,187599.394349,462.848035,828148.144296,382377.105967,249623.925222,289.443474,236347.662912,610.326791
0909,116989.171013,684.963386,156704.466140,373.016364,193693.136864,713.588051,271983.977541,41662.057083,243087.100314,336.044150,229334.467253,554.334077
0910,122739.054524,402.962181,163281.650580,346.807303,201160.792220,723.710366,250508.715667,510.166975,235588.100261,310.028560,221476.319340,710.397490
0911,126794.386315,345.590457,166145.739104,344.713428,204914.270776,651.774722,246694.904311,335.995887,232627.286525,302.058555,217651.816055,711.496921
0912,127435.039654,483.085548,166125.206285,382.738624,203961.309716,530.465003,245689.167665,449.589996,232358.216600,359.235268,219861.218350,654.128905
0913,132128.213967,475.070037,172027.844034,620.901188,211850.426060,2083.611185,240688.773159,573.592866,227523.592942,553.046872,214955.022978,1239.926035
0914,141642.307979,490.567418,180405.128620,446.600949,216916.300297,861.485381,230709.423985,537.786939,217855.218946,421.930105,204872.092646,1019.990304
0915,153430.337561,373.191518,192209.293725,363.869579,227192.254282,761.617774,217798.553807,360.747944,204667.553454,388.426872,193910.514827,756.940725
1002,126262.165081,27385.587859,135634.335875,519.240567,176315.753208,1970.725117,563067.163871,431053.256380,262566.473967,515.892309,249707.228048,871.650650
1003,124889.867028,1570.710768,162617.580324,723.461757,494809.897738,580978.770316,271199.115422,678.404814,258823.312920,709.385998,-330016.995490,484526.479288
1004,-947336.269622,123984.029653,152556.264095,4874.377920,157584.257013,573.224415,1201270.336706,222545.842661,227229.521343,18348.977619,264506.585773,699.173717
1005,45839.605828,165771.629881,157519.985259,625.046845,325796.024291,355885.500872,278430.648258,559.276120,266904.395776,583.949328,-19826.403881,451001.284796
1006,75568.984090,306081.950352,123734.929155,398.620036,161428.366715,538.240141,783672.756658,31.498654,274657.482681,513.737116,262818.712873,629.495693
1007,133669.635849,346.901763,142758.451023,23969.626019,171783.798944,697.286290,263680.840423,339.805602,163808.276586,157299.126189,249372.188336,757.188506
1008,134280.011967,6407.167925,148260.011401,332.512034,186214.887543,482.130454,234549.561680,7711.909282,249280.367884,335.460062,234328.644451,540.907567
1009,130877.313147,4046.253616,156195.935585,386.523607,194209.883962,743.731803,-154303.464999,8.111469,240831.293388,346.125068,225410.822071,486.207233
1010,122537.401918,538.062484,160528.720253,407.885819,198836.358280,703.522669,248990.163479,486.511424,235976.549030,401.732488,221779.051269,650.343328
1011,122772.600677,462.185662,161220.066007,387.367042,198119.762170,719.741173,324495.841107,148976.177204,235628.816156,393.690153,222397.521578,571.128749
1012,123080.459001,1009.947708,161391.820445,408.679096,197794.548538,658.349730,-747123.085978,1.407713,236116.262548,391.608161,224443.829508,652.855019
1013,134358.712671,1534.353583,167178.379503,790.903401,205726.931567,1506.180848,236964.378245,3333.374469,228747.557387,712.559876,216704.549965,1128.566561
1014,137772.329754,631.252954,175096.756412,440.886939,211479.592047,707.829536,232790.283663,821.746910,221028.800058,526.499403,208803.661758,790.082986
1015,147176.906680,395.909453,187058.722263,440.672112,222373.737647,846.223930,221917.675273,436.291572,208966.658042,386.843465,197759.624270,888.056451
1102,124515.618389,417431.762771,127100.447748,589.083916,170960.273036,5268.271985,213893.572167,18006.871832,276095.627796,564.178941,263747.094209,901.241955
1103,120318.535241,644.486473,141333.863915,3125.038245,158236.446057,470.710067,283617.582696,351.294005,-413219.988307,420957.587870,269621.543199,546.181617
1104,-397478.198687,11862.039309,152971.337988,1965.243671,156739.825872,1046.905042,719444.199023,157071.597358,266078.178615,2031.943729,272425.805143,767.999248
1105,-198301.780053,58191.676339,143258.585878,16496.790424,158161.866118,527.602373,1000560.824615,152552.463615,218963.895917,4197.766401,269430.173846,423.483932
1106,124514.639339,316.744685,131322.135389,12690.842394,163514.829943,539.053618,277797.802076,315.901408,98001.281777,432957.128511,262184.634552,486.359710
1107,135180.362612,293.796645,147434.835030,12552.193822,174865.475395,547.599386,267214.946272,286.180505,201484.817492,34982.054610,252391.747040,672.854647
1108,111258.817547,47964.514613,145896.062058,214.537355,184824.161286,393.362722,768986.857731,442590.192263,256715.295109,236.274514,241325.494710,378.002299
1109,-584014.119071,135134.867801,152184.098178,394.080173,192789.123022,828.881424,1273956.871013,268173.112267,250545.407308,359.148684,235121.072296,572.872284
1110,117497.066061,584.984819,156183.617844,332.067686,194220.500278,664.008400,1400154.050192,901353.150467,245869.564954,318.373080,232670.905159,603.284973
1111,119829.016542,859.812013,157538.378136,301.950918,194106.434919,746.944394,258620.805367,696.562741,244982.653968,307.858013,230955.559807,755.918077
1112,121194.889463,635.696414,158586.021185,433.049833,195077.111125,604.765173,256547.020635,518.395257,243662.579490,436.372897,230562.441168,643.893161
1113,128393.043649,733.675733,165736.233736,451.950593,201689.418270,861.642247,247797.086442,793.064734,235224.189113,437.092147,222253.195158,824.037974
1114,133755.795117,385.514451,173930.246109,483.433856,212325.369560,884.887059,240868.588522,444.452810,226193.325390,439.170086,213895.422460,912.024726
1115,145498.903087,425.024837,185672.380040,470.287549,220512.932745,871.263377,227994.688559,421.407842,215024.005018,553.274918,204146.501482,938.898663
1202,121796.057561,1722.307570,122598.532744,748.575256,158313.699438,721.176502,292183.741002,1270.108533,294383.277816,780.817937,279689.845561,672.384886
1203,119320.468572,478.043026,125356.291147,18015.314352,156334.568544,625.986443,297105.696734,391.436596,151206.211348,302298.605230,281005.110747,511.369381
1204,123737.507344,468.604456,126596.194995,1683.881840,160093.073524,482.959850,294105.891368,679.069165,291563.618906,603.790002,277221.582430,505.610493
1205,118847.732763,922.402503,124139.851127,417.371228,161830.958806,697.568792,288726.795167,604.529532,291458.588151,465.256456,273398.926428,848.104403
1206,0.000000,0.000000,118044.544508,37610.105309,130946.511448,317.185852,0.000000,0.000000,275531.869417,745.012470,285087.712021,346.365919
1207,137774.091106,484.339770,139391.371744,303.103502,178546.151151,375.892184,272772.178126,507.763704,275910.071679,286.897475,258367.386406,389.591364
1208,-127771.626160,2195041.315472,146446.400531,198.142409,185370.346274,370.351302,878940.427288,296897.748649,266917.010841,208.097943,251145.465296,345.237331
1209,145540.014261,454.472637,149851.236080,411.363379,187583.753983,739.711910,263697.093744,509.052459,265620.777920,414.973099,248793.932808,661.228006
1210,146470.684049,933.535291,151513.049916,364.230805,188321.201650,723.015512,261223.261728,1036.814773,262928.641160,370.044350,247057.544125,796.559531
1211,-598970.354495,251115.135201,148681.242122,684.744987,154149.071595,386.010482,261979.588359,18400.879757,259701.200513,880.107855,260296.298832,393.308162
1212,121904.593637,1371.144030,154026.790352,753.430283,157701.673302,523.917263,267851.286489,791.031164,253359.781701,642.446178,255989.695606,501.105011
1213,125838.004190,473.202343,164556.248597,493.244349,166571.437597,532.481277,260054.626125,456.302881,243129.012131,491.355028,245885.363699,454.374451
1214,133044.595106,349.113285,172834.450325,428.621546,210658.638376,1325.212055,252408.808506,405.250032,236921.414683,404.456081,224179.564703,4504.139741
1215,143569.320198,365.003848,182702.073827,474.529153,223854.015266,3800.763998,240132.930949,384.426886,225961.655585,472.289352,211651.714535,1447.288591
1302,117640.862696,764.205824,152925.999458,1452.672549,155189.508339,2139.694294,295675.241911,1549.462605,278601.889331,808.255376,279823.923843,2543.118416
1303,118436.293947,386.352207,156058.050581,647.420120,158796.633563,830.766067,289277.901028,1115.299715,274774.382235,484.704290,276735.921023,897.106915
1304,125704.532045,307.824236,159839.450251,1660.706114,165660.092432,699.131959,282593.747423,309.507644,267958.362574,1226.615781,270484.970853,740.636661
1305,130879.219692,323.671313,162635.657138,4954.059286,169808.139655,571.969213,277833.027763,289.766975,258121.201859,1790.629693,265125.945366,933.058248
1306,136191.875724,272.053875,176166.681558,757.851038,180326.120927,1803.819814,272424.598387,272.357869,254115.439390,606.158992,253751.987283,6945.459116
1307,142457.920478,267.084713,181111.685579,791.631110,184833.084044,565.712844,266312.946718,244.199064,248526.244688,885.477247,249590.399826,698.723160
1308,134160.729109,51809.657379,145058.534046,217.650924,187323.175961,970.779600,640474.827004,391292.822941,262689.264375,188.749580,248403.831833,527.559951
1309,144153.266287,293.408222,182618.987989,992.731119,185397.075092,1205.840588,263948.000448,268.312544,249329.203296,1043.890978,249974.137321,1109.625742
1310,135390.212536,7647.785701,144354.764682,330.591699,185071.054055,1119.403508,256773.274079,74690.760907,264263.347972,323.617809,249562.717873,771.296224
1311,139076.458828,10166.328258,149251.940551,354.024673,187070.826520,2030.039633,339911.308462,434711.289733,259280.629576,303.009382,243871.366755,2228.571313
1312,97535.399913,55822.320905,156472.765479,359.979584,194219.214484,1672.079930,1407405.116009,1.414214,251403.298811,323.634770,234181.717176,1297.911656
1313,125529.117886,460.153965,164533.102486,429.122540,199349.531473,779.480441,1085265.524728,269359.251122,242658.093255,360.250687,229744.771149,826.028393
1314,132292.619371,287.979112,172163.896738,384.840517,208797.483922,669.900986,248247.234785,275.311950,234149.893312,355.586776,220971.164077,779.654117
1315,141962.189511,358.029517,181322.029395,353.702472,215668.633044,1663.057698,237013.207238,355.767111,223922.375802,355.574050,208292.739194,12610.616417
1402,0.000000,0.000000,119445.672944,702.027969,157034.582441,647.887765,0.000000,0.000000,280952.944720,680.434166,267469.853896,649.090479
1403,121903.011458,371.838019,152197.954755,386774.176168,162593.182492,861.084952,276841.123368,353.172811,211757.675900,35381.503970,262434.054844,676.188606
1404,-373904.868243,391830.861816,129833.432600,316.132558,169015.310802,775.419679,350216.632591,1248448.639517,269417.804500,335.163170,254428.687935,453.800616
1405,138104.516445,306.075966,139838.867188,8083.820496,176879.366298,669.216542,261156.800873,276.339271,196835.507406,12048.307856,244191.386467,615.358466
1406,-156588.490872,251705.650587,145451.756492,230.857337,185302.682121,495.408010,244557.999187,8071.750648,254387.135380,222.459038,238633.363661,433.239296
1407,54008.288646,139309.627559,148692.084169,209.297748,188228.513165,688.982128,426433.267964,488424.393756,250383.356342,182.301971,236713.258094,410.290596
1408,-562885.186878,88934.741450,148092.206206,210.947510,187435.577213,386.447607,1013316.889749,396619.981563,251121.815758,201.192386,236258.511758,378.261648
1409,-55062.919986,282858.320594,144286.685814,363.290950,184133.364958,784.007611,341537.009699,770120.491257,255876.523595,315.981871,241290.376551,734.855073
1410,57519.184046,404867.239749,142836.505071,287.120582,181811.159256,768.090793,149230.127251,1008048.150463,257689.017500,289.291116,242691.783981,661.046319
1411,112398.353863,122514.336492,148257.019209,377.802660,188081.082480,535.448090,261240.815680,1910.077503,250821.475067,381.148613,236268.300110,631.664925
1412,116944.781347,431.186563,156044.868148,339.074732,194935.304532,894.623880,520074.275455,602497.224599,243216.919375,348.810908,227703.949943,506.005014
1413,126119.505507,436.462476,165692.182210,380.275349,202218.085169,846.862692,246760.007378,462.013253,233188.384266,363.438513,220865.276490,646.836384
1414,134067.384238,327.680109,175240.913477,331.481694,210760.765688,624.878579,238785.985754,315.521819,223140.909103,319.349714,212382.980583,655.580229
1415,144530.243486,330.461704,183909.526426,343.024457,219841.815993,671.325697,226686.750039,371.572911,213451.258217,319.669668,201851.876204,620.271045
1502,-175136.531424,967118.506107,126841.215041,403.168098,165111.669635,556.471329,455191.618918,716084.705634,276070.241136,430.384482,260964.090448,493.957002
1503,128800.159603,293.518441,168054.115083,499.046915,491614.774222,447475.174323,274752.741349,281.230147,257542.215794,545.050589,197862.678941,12624.547692
1504,134208.591320,275.259742,172034.596979,758.934006,174140.310366,681.090990,268875.736162,301.385397,253093.506254,940.304041,251166.831797,1693.389437
1505,136624.900276,13679.063375,144554.175955,279.451254,183839.609897,508.592183,268512.019373,78374.709499,257574.208797,279.943893,242337.500462,401.447140
1506,-660597.594171,171022.431724,150819.836302,207.657501,190490.618427,414.842466,1237552.457731,373717.426286,251217.527697,187.716948,236982.349340,485.263384
1507,115213.875582,438.496139,152713.905640,245.869542,192047.557834,514.016930,263935.654732,583.685706,250003.551207,229.561835,233338.899543,508.202590
1508,114322.537618,836.455391,151712.103352,224.041102,188858.946392,430.297734,262519.506222,910.819474,251199.799834,192.073117,237250.888897,377.290387
1509,97877.490690,72995.061416,146374.789247,350.886001,186052.889457,787.292502,901182.187107,625505.764768,256183.021427,319.858458,241054.587441,616.227852
1510,32496.075768,515224.359553,145249.896111,342.441614,184807.003160,670.792029,762662.405593,584984.961689,257758.941598,318.858784,242751.344319,516.265789
1511,125906.460297,33225.936099,148052.572927,349.181929,187622.592287,725.992322,261028.593369,227714.077097,254455.349544,303.187679,238726.692139,643.693848
1512,117136.817808,558.026732,156670.853554,363.430883,193513.914426,598.384382,464003.346169,430451.189757,245611.582175,331.830195,231343.663629,570.523037
1513,125356.893879,417.273220,164919.691114,404.095975,200654.012916,685.103131,317112.381355,169201.426881,236851.223679,364.238576,224669.313497,650.492546
1514,134428.653620,335.479103,173493.223659,350.885769,210437.220514,585.099620,240793.433555,314.572680,226831.278036,344.325764,227535.710340,0.082616
1515,145873.246757,307.836711,185308.236797,384.160808,220207.896301,672.628898,228054.630108,311.881157,214486.159771,342.109139,203557.615005,587.744179
1602,69680.997043,361797.284344,131630.201648,380.962060,169804.085224,809.998726,177987.693658,661547.636918,272265.908782,410.018748,255930.592657,1651.649339
1603,133279.339250,429.375366,133941.047254,10653.418835,174527.436614,525.771079,269447.889092,408.424713,232653.481573,6819.005549,256074.950033,890.982847
1604,33893.901836,528179.821287,141335.364585,390.176409,183141.720721,600.764691,846160.140985,602821.626703,262599.591625,346.943479,247128.803555,589.733039
1605,81981.232877,127455.387363,148840.234383,311.504425,186064.754646,916.301088,753426.901290,841087.200226,254533.686064,276.030864,240670.033805,656.817836
1606,117677.619040,597.534039,156336.188497,255.100789,198713.441616,1209.561687,250756.122169,1339.810017,247737.808646,246.278421,233801.061223,1024.298193
1607,116257.411118,642.313843,156823.571783,306.320189,193202.569182,713.730639,261454.713415,520.654094,246956.496832,295.396940,233804.321215,571.945648
1608,120918.062634,2643.930609,152689.712513,292.999935,196237.903862,1233.897427,269984.689492,74119.738250,250403.745122,251.505138,237926.274861,620.311853
1609,-242475.536035,386799.513082,149149.459040,451.322835,187661.459622,982.540790,1011980.351566,436381.345689,254950.546018,362.812675,241815.268050,846.404432
1610,75571.067809,613763.732572,148532.867934,394.420855,187145.138786,760.557942,234488.150939,121855.064245,255693.019043,349.357681,243185.394446,800.534152
1611,113012.922702,1209.193630,151122.044801,447.743445,189047.508464,701.427850,800261.457006,114609.709133,253713.552169,371.366829,239725.379867,869.324611
1612,117364.099075,882.066500,156562.206184,445.690527,194943.531627,1610.695335,261637.177328,671.524064,247272.321739,364.981507,234449.811281,1052.871939
1613,125496.339683,568.664919,164818.429007,453.798931,201716.270021,786.298295,252073.294755,473.170138,239107.903681,427.526206,224924.685104,647.054966
1614,134384.196582,400.464365,175689.008813,447.488506,210825.213317,1174.917871,241068.444728,492.440549,227075.946161,438.061208,212707.929983,1401.061805
1615,145804.249233,341.120909,185424.782752,412.590170,221649.709849,697.460033,228461.396414,316.777332,215144.176849,375.358892,202713.125653,889.506643
