2,2,0
2,3,0
2,4,0
2,5,0
2,6,0
2,7,0
2,8,0
2,9,0
2,10,0
2,11,0
2,12,0
2,13,0
2,14,0
2,15,0
3,2,0
3,3,1
3,4,1
3,5,1
3,6,0
3,7,0
3,8,0
3,9,0
3,10,0
3,11,0
3,12,0
3,13,0
3,14,0
3,15,0
4,2,0
4,3,1
4,4,1
4,5,1
4,6,0
4,7,0
4,8,0
4,9,0
4,10,0
4,11,0
4,12,0
4,13,0
4,14,0
4,15,0
5,2,0
5,3,1
5,4,1
5,5,1
5,6,1
5,7,0
5,8,0
5,9,0
5,10,0
5,11,0
5,12,0
5,13,0
5,14,0
5,15,0
6,2,0
6,3,1
6,4,1
6,5,1
6,6,1
6,7,0
6,8,0
6,9,0
6,10,0
6,11,0
6,12,0
6,13,0
6,14,0
6,15,0
7,2,0
7,3,1
7,4,1
7,5,1
7,6,1
7,7,0
7,8,0
7,9,0
7,10,0
7,11,0
7,12,0
7,13,0
7,14,0
7,15,0
8,2,0
8,3,1
8,4,1
8,5,1
8,6,1
8,7,1
8,8,0
8,9,0
8,10,0
8,11,0
8,12,0
8,13,0
8,14,0
8,15,0
9,2,1
9,3,1
9,4,1
9,5,1
9,6,1
9,7,1
9,8,0
9,9,0
9,10,0
9,11,0
9,12,0
9,13,0
9,14,0
9,15,0
10,2,1
10,3,1
10,4,1
10,5,1
10,6,1
10,7,0
10,8,0
10,9,0
10,10,0
10,11,0
10,12,0
10,13,0
10,14,0
10,15,0
11,2,1
11,3,1
11,4,1
11,5,1
11,6,1
11,7,1
11,8,0
11,9,0
11,10,0
11,11,0
11,12,0
11,13,0
11,14,0
11,15,0
12,2,1
12,3,1
12,4,1
12,5,1
12,6,1
12,7,1
12,8,0
12,9,0
12,10,0
12,11,0
12,12,0
12,13,0
12,14,0
12,15,0
13,2,1
13,3,1
13,4,1
13,5,1
13,6,1
13,7,0
13,8,0
13,9,0
13,10,0
13,11,0
13,12,0
13,13,0
13,14,0
13,15,0
14,2,1
14,3,1
14,4,1
14,5,1
14,6,0
14,7,0
14,8,0
14,9,0
14,10,0
14,11,0
14,12,0
14,13,0
14,14,0
14,15,0
15,2,1
15,3,1
15,4,1
15,5,0
15,6,0
15,7,0
15,8,0
15,9,0
15,10,0
15,11,0
15,12,0
15,13,0
15,14,0
15,15,0
16,2,1
16,3,1
16,4,0
16,5,0
16,6,0
16,7,0
16,8,0
16,9,0
16,10,0
16,11,0
16,12,0
16,13,0
16,14,0
16,15,0
